…
``` r
# Animate tracks

make180 <- function(lon) {
    ind <- which(lon > 180)
    lon[ind] <- lon[ind] - 360
   return(lon)
}

plotTrack(chl_track, make180(xcoords), ycoords, tcoords, plotColor = 'viridis',
                    animate = TRUE, cumulative = TRUE)
```

    ## # A tibble: 177 × 7
    ##    format width height colorspace matte filesize density
    ##    <chr>  <int>  <int> <chr>      <lgl>    <int> <chr>  
    ##  1 gif      672    480 sRGB       TRUE         0 72x72  
    ##  2 gif      672    480 sRGB       TRUE         0 72x72  
    ##  3 gif      672    480 sRGB       TRUE         0 72x72  
    ##  4 gif      672    480 sRGB       TRUE         0 72x72  
    ##  5 gif      672    480 sRGB       TRUE         0 72x72  
    ##  6 gif      672    480 sRGB       TRUE         0 72x72  
    ##  7 gif      672    480 sRGB       TRUE         0 72x72  
    ##  8 gif      672    480 sRGB       TRUE         0 72x72  
    ##  9 gif      672    480 sRGB       TRUE         0 72x72  
    ## 10 gif      672    480 sRGB       TRUE         0 72x72  
    ## # ℹ 167 more rows
…
