…
``` r
library(dplyr)
tuna_df <- pre_tuna_df %>% group_by(Date) %>% summarize(Most.Likely.Latitude = mean(Most.Likely.Latitude),
                                         Most.Likely.Longitude = mean(Most.Likely.Longitude),
                                         Satellite.SST = mean(Satellite.SST, na.rm=TRUE),
                                         Observed.SST = mean(Observed.SST, na.rm=TRUE),
                                         Observed.Depth = mean(Observed.Depth, na.rm=TRUE),
                                         Bathymetry.Depth = mean(Bathymetry.Depth, na.rm=TRUE),
                                         )

tuna_df
```

    ## # A tibble: 177 × 7
    ##    Date       Most.Likely.Latitude Most.Likely.Longitude Satellite.SST
    ##    <date>                    <dbl>                 <dbl>         <dbl>
    ##  1 2022-05-31                 5.88                  198.         NaN  
    ##  2 2022-06-01                 5.88                  198           28.3
    ##  3 2022-06-02                 5.92                  198.          28.3
    ##  4 2022-06-03                 5.92                  198.          28.3
    ##  5 2022-06-04                 5.98                  198.          28.3
    ##  6 2022-06-05                 6.11                  198.          28.4
    ##  7 2022-06-06                 6.28                  198.          28.3
    ##  8 2022-06-07                 6.45                  197.          28.3
    ##  9 2022-06-08                 6.51                  197.          28.2
    ## 10 2022-06-09                 6.78                  197.          28.2
    ## # ℹ 167 more rows
    ## # ℹ 3 more variables: Observed.SST <dbl>, Observed.Depth <dbl>,
    ## #   Bathymetry.Depth <dbl>
…
